<?xml version="1.0" encoding="iso-8859-1"?>
<!-- Generator: Adobe Illustrator 19.0.0, SVG Export Plug-In . SVG Version: 6.00 Build 0)  -->
<svg version="1.1" id="Capa_1" xmlns="http://www.w3.org/2000/svg" xmlns:xlink="http://www.w3.org/1999/xlink" x="0px" y="0px"
	  width="28" height="28" viewBox="0 0 9 9" style="enable-background:new 0 0 5 5;" xml:space="preserve">
<circle style="fill:#D75A4A;" cx="4.1" cy="4.1" r="4.1"/>
<polyline style="fill:none;stroke:#FFFFFF;stroke-width:1;stroke-linecap:round;stroke-miterlimit:10;" points="2.6, 5.6 4.1, 4.1 5.6, 2.6 
	"/>
<polyline style="fill:none;stroke:#FFFFFF;stroke-width:1;stroke-linecap:round;stroke-miterlimit:10;" points="2.6, 2.6 4.1,4.1 5.6, 5.6 
	"/>
<g>
</g>
<g>
</g>
<g>
</g>
<g>
</g>
<g>
</g>
<g>
</g>
<g>
</g>
<g>
</g>
<g>
</g>
<g>
</g>
<g>
</g>
<g>
</g>
<g>
</g>
<g>
</g>
<g>
</g>
</svg>
